[gd_scene load_steps=6 format=2]

[ext_resource path="res://assets/graphics/actors/enemies/rock.png" type="Texture" id=1]
[ext_resource path="res://src/Actors/Enemies/Rock.gd" type="Script" id=2]
[ext_resource path="res://src/Effects/Explosion.tscn" type="PackedScene" id=3]

[sub_resource type="PhysicsMaterial" id=1]
bounce = 1.0

[sub_resource type="CircleShape2D" id=2]

[node name="Rock" type="RigidBody2D" groups=[
"rocks",
]]
physics_material_override = SubResource( 1 )
linear_damp = 0.0
angular_damp = 0.0
script = ExtResource( 2 )

[node name="Sprite" type="Sprite" parent="."]
texture = ExtResource( 1 )

[node name="CollisionShape2D" type="CollisionShape2D" parent="."]
shape = SubResource( 2 )

[node name="Explosion" parent="." instance=ExtResource( 3 )]
frame = 1
[connection signal="animation_finished" from="Explosion/AnimationPlayer" to="." method="_on_AnimationPlayer_animation_finished"]

[editable path="Explosion"]
